{
	"Order Place":
	{
		"InitialQuantity":"2",
		"InitialDressSize":"L",
		"DesiredProductWomenTab":"Printed Chiffon Dress",
		"UpdatedQuantity":"1",
		"emailDomain":"@gmail.com",
		"FirstName":"First Name",
		"LastName":"Last Name",
		"Password":"Password",
		"Address":"Address",
		"City":"City",
		"State":"Florida",
		"ZipCode":"56456",
		"Mobile":"6434566484"
	}
}
		